Week 10 Assignment - Text Mining
…
Work with a different corpus of your choosing, and

Incorporate at least one additional sentiment lexicon (possibly from another R package that youve found through research).

As usual, please submit links to both an .Rmd file posted in your GitHub repository and to your code on rpubs.com. You make work on a small team on this assignment.

Our Dataset

library(tidytext)
library(textdata)    # Needed for AFINN lexicon

sentiments

## # A tibble: 6,786 x 2
##    word        sentiment
##    <chr>       <chr>    
##  1 2-faces     negative 
##  2 abnormal    negative 
##  3 abolish     negative 
##  4 abominable  negative 
##  5 abominably  negative 
##  6 abominate   negative 
##  7 abomination negative 
##  8 abort       negative 
##  9 aborted     negative 
## 10 aborts      negative 
## # ... with 6,776 more rows
…
Citation info:

This dataset was published in Saif M. Mohammad and Peter Turney. (2013), ``Crowdsourcing a Word-Emotion Association Lexicon. Computational Intelligence, 29(3): 436-465.

article{mohammad13, author = {Mohammad, Saif M. and Turney, Peter D.}, title = {Crowdsourcing a Word-Emotion Association Lexicon}, journal = {Computational Intelligence}, volume = {29}, number = {3}, pages = {436-465}, doi = {10.1111/j.1467-8640.2012.00460.x}, url = {https://onlinelibrary.wiley.com/doi/abs/10.1111/j.1467-8640.2012.00460.x}, eprint = {https://onlinelibrary.wiley.com/doi/pdf/10.1111/j.1467-8640.2012.00460.x}, year = {2013} }

** The NRC lexicon description **

General purpose English sentiment/emotion lexicon. This lexicon labels words with six possible sentiments or emotions: negative, positive, anger, anticipation, disgust, fear, joy, sadness, surprise, or trust. The annotations were manually done through Amazons Mechanical Turk.

# get_sentiments("afinn")
get_sentiments("nrc")

## # A tibble: 13,901 x 2
##    word        sentiment
##    <chr>       <chr>    
##  1 abacus      trust    
##  2 abandon     fear     
##  3 abandon     negative 
##  4 abandon     sadness  
##  5 abandoned   anger    
##  6 abandoned   fear     
##  7 abandoned   negative 
##  8 abandoned   sadness  
##  9 abandonment anger    
## 10 abandonment fear     
## # ... with 13,891 more rows
…
Notice that we chose the name *word for the output column from unnest_tokens(). This is a convenient choice because the sentiment lexicons and stop-word datasets have columns named word; performing inner joins and anti-joins is thus easier.

Now that the text is in a tidy format with one word per row, we are ready to do the sentiment analysis. First, lets use the NRC lexicon and filter() for the joy words. Next, lets filter() the data frame with the text from the book for the words from Emma and then use inner_join() to perform the sentiment analysis. What are the most common joy words in Emma? Lets use count() from dplyr.

nrcjoy <- tidytext::get_sentiments("nrc") %>%
  filter(sentiment == "joy")

tidy_books %>%
  filter(book == "Emma") %>%
  inner_join(nrcjoy) %>%
  count(word, sort = TRUE)

## Joining, by = "word"

## # A tibble: 303 x 2
##    word        n
##    <chr>   <int>
##  1 good      359
##  2 young     192
##  3 friend    166
##  4 hope      143
##  5 happy     125
##  6 love      117
##  7 deal       92
##  8 found      92
##  9 present    89
## 10 kind       82
## # ... with 293 more rows
…
We can see in Figure 2-2 how the plot of each novel changes toward more positive or negative sentiment over the trajectory of the story.

Comparing the Three Sentiment Dictionaries

With several options for sentiment lexicons, you might want some more information on which one is appropriate for your purposes. Lets use all three sentiment lexicons and examine how the sentiment changes across the narrative arc of Pride and Prejudice. First, lets use filter() to choose only the words from the one novel we are interested in.

pride_prejudice <- tidy_books %>%
  filter(book == "Pride & Prejudice")

pride_prejudice

## # A tibble: 122,204 x 4
##    book              linenumber chapter word     
##    <fct>                  <int>   <int> <chr>    
##  1 Pride & Prejudice          1       0 pride    
##  2 Pride & Prejudice          1       0 and      
##  3 Pride & Prejudice          1       0 prejudice
##  4 Pride & Prejudice          3       0 by       
##  5 Pride & Prejudice          3       0 jane     
##  6 Pride & Prejudice          3       0 austen   
##  7 Pride & Prejudice          7       1 chapter  
##  8 Pride & Prejudice          7       1 1        
##  9 Pride & Prejudice         10       1 it       
## 10 Pride & Prejudice         10       1 is       
## # ... with 122,194 more rows
…
Both lexicons have more negative than positive words, but the ratio of negative to positive words is higher in the Bing lexicon than the NRC lexicon. This will contribute to the effect we see in the plot above, as will any systematic difference in word matches, for example, if the negative words in the NRC lexicon do not match very well with the words that Jane Austen uses. Whatever the source of these differences, we see similar relative trajectories across the narrative arc, with similar changes in slope, but marked differences in absolute sentiment from lexicon to lexicon. This is important context to keep in mind when choosing a sentiment lexicon for analysis.

Most Common Positive and Negative Words

One advantage of having the data frame with both sentiment and word is that we can analyze word counts that contribute to each sentiment. By implementing count() here with arguments of both word and sentiment, we find out how much each word contributed to each sentiment.

bing_word_counts <- tidy_books %>%
  inner_join(get_sentiments("bing")) %>%
  count(word, sentiment, sort = TRUE) %>%
  ungroup()

bing_word_counts

## # A tibble: 2,585 x 3
##    word     sentiment     n
##    <chr>    <chr>     <int>
##  1 miss     negative   1855
##  2 well     positive   1523
##  3 good     positive   1380
##  4 great    positive    981
##  5 like     positive    725
##  6 better   positive    639
##  7 enough   positive    613
##  8 happy    positive    534
##  9 love     positive    495
## 10 pleasure positive    462
## # ... with 2,575 more rows
…
From the chart above we can spot an anomaly in the sentiment analysis; the word miss is coded as negative but it is used as a title for young, unmarried women in Jane Austens works. If it were appropriate for our purposes, we could easily add miss to a custom stop-words list using bind_rows(). We could implement that with a strategy such as this:

custom_stop_words <- bind_rows(data_frame(word = c("miss"),
                                          lexicon = c("custom")),
                               stop_words)

## Warning: `data_frame()` was deprecated in tibble 1.1.0.
## Please use `tibble()` instead.

custom_stop_words

## # A tibble: 1,150 x 2
##    word        lexicon
##    <chr>       <chr>  
##  1 miss        custom 
##  2 a           SMART  
##  3 a's         SMART  
##  4 able        SMART  
##  5 about       SMART  
##  6 above       SMART  
##  7 according   SMART  
##  8 accordingly SMART  
##  9 across      SMART  
## 10 actually    SMART  
## # ... with 1,140 more rows
…
