Final Project - Predict Hospital Readmission of Diabetic Patients
…
## [1] 72818

nrow(diab_data_test)

## [1] 24272

Next, lets create bootstrap resamples of the training data, to evaluate our models.

set.seed(4123)
diab_data_boot <- bootstraps(diab_data_training)
diab_data_boot

## # Bootstrap sampling 
## # A tibble: 25 x 2
##    splits                id         
##    <list>                <chr>      
##  1 <split [72818/26768]> Bootstrap01
##  2 <split [72818/26647]> Bootstrap02
##  3 <split [72818/26692]> Bootstrap03
##  4 <split [72818/26802]> Bootstrap04
##  5 <split [72818/26731]> Bootstrap05
##  6 <split [72818/26734]> Bootstrap06
##  7 <split [72818/26833]> Bootstrap07
##  8 <split [72818/26702]> Bootstrap08
##  9 <split [72818/26756]> Bootstrap09
## 10 <split [72818/26784]> Bootstrap10
## # ... with 15 more rows
…
glm_rs

## Warning: This tuning result has notes. Example notes on model fitting include:
## preprocessor 1/1, model 1/1 (predictions): prediction from a rank-deficient fit may be misleading
## preprocessor 1/1, model 1/1: glm.fit: algorithm did not converge, glm.fit: fitted probabilities numerically 0 or 1 occurred
## preprocessor 1/1, model 1/1 (predictions): prediction from a rank-deficient fit may be misleading

## # Resampling results
## # Bootstrap sampling 
## # A tibble: 25 x 5
##    splits             id         .metrics       .notes        .predictions      
##    <list>             <chr>      <list>         <list>        <list>            
##  1 <split [72818/267~ Bootstrap~ <tibble [2 x ~ <tibble [2 x~ <tibble [26,768 x~
##  2 <split [72818/266~ Bootstrap~ <tibble [2 x ~ <tibble [2 x~ <tibble [26,647 x~
##  3 <split [72818/266~ Bootstrap~ <tibble [2 x ~ <tibble [2 x~ <tibble [26,692 x~
##  4 <split [72818/268~ Bootstrap~ <tibble [2 x ~ <tibble [2 x~ <tibble [26,802 x~
##  5 <split [72818/267~ Bootstrap~ <tibble [2 x ~ <tibble [1 x~ <tibble [26,731 x~
##  6 <split [72818/267~ Bootstrap~ <tibble [2 x ~ <tibble [2 x~ <tibble [26,734 x~
##  7 <split [72818/268~ Bootstrap~ <tibble [2 x ~ <tibble [2 x~ <tibble [26,833 x~
##  8 <split [72818/267~ Bootstrap~ <tibble [2 x ~ <tibble [2 x~ <tibble [26,702 x~
##  9 <split [72818/267~ Bootstrap~ <tibble [2 x ~ <tibble [1 x~ <tibble [26,756 x~
## 10 <split [72818/267~ Bootstrap~ <tibble [2 x ~ <tibble [2 x~ <tibble [26,784 x~
## # ... with 15 more rows
Second, we can fit the random forest model.

doParallel::registerDoParallel()
rf_rs <- diab_data_wf %>%
  add_model(rf_spec) %>%
  fit_resamples(
    resamples = diab_data_boot,
    control = control_resamples(save_pred = TRUE)
  )

rf_rs

## # Resampling results
## # Bootstrap sampling 
## # A tibble: 25 x 5
##    splits             id         .metrics       .notes        .predictions      
##    <list>             <chr>      <list>         <list>        <list>            
##  1 <split [72818/267~ Bootstrap~ <tibble [2 x ~ <tibble [0 x~ <tibble [26,768 x~
##  2 <split [72818/266~ Bootstrap~ <tibble [2 x ~ <tibble [0 x~ <tibble [26,647 x~
##  3 <split [72818/266~ Bootstrap~ <tibble [2 x ~ <tibble [0 x~ <tibble [26,692 x~
##  4 <split [72818/268~ Bootstrap~ <tibble [2 x ~ <tibble [0 x~ <tibble [26,802 x~
##  5 <split [72818/267~ Bootstrap~ <tibble [2 x ~ <tibble [0 x~ <tibble [26,731 x~
##  6 <split [72818/267~ Bootstrap~ <tibble [2 x ~ <tibble [0 x~ <tibble [26,734 x~
##  7 <split [72818/268~ Bootstrap~ <tibble [2 x ~ <tibble [0 x~ <tibble [26,833 x~
##  8 <split [72818/267~ Bootstrap~ <tibble [2 x ~ <tibble [0 x~ <tibble [26,702 x~
##  9 <split [72818/267~ Bootstrap~ <tibble [2 x ~ <tibble [0 x~ <tibble [26,756 x~
## 10 <split [72818/267~ Bootstrap~ <tibble [2 x ~ <tibble [0 x~ <tibble [26,784 x~
## # ... with 15 more rows
…
